<?xml version="1.0" encoding="utf-8"?>
<!-- Generator: Adobe Illustrator 16.0.4, SVG Export Plug-In . SVG Version: 6.00 Build 0)  -->
<!DOCTYPE svg PUBLIC "-//W3C//DTD SVG 1.1//EN" "http://www.w3.org/Graphics/SVG/1.1/DTD/svg11.dtd">
<svg version="1.1" id="Layer_1" xmlns="http://www.w3.org/2000/svg" xmlns:xlink="http://www.w3.org/1999/xlink" x="0px" y="0px"
	 width="73px" height="90px" viewBox="0 0 73 90" enable-background="new 0 0 73 90" xml:space="preserve">

<desc>Created with Sketch.</desc>
<g id="_x25C9_-Register-">
	<g id="_x32_8.-Register-Step-1---Large-" transform="translate(-604.000000, -508.000000)">
		<g id="Group-6-Copy" transform="translate(604.000000, 508.000000)">
			<path id="Shape" fill="#0f5cd5" d="M27.9,62.637C25.9,62.159,23.6,62,21.3,62H4c-2.2,0-4,1.433-4,3.184v12.578
				c0,0.955,0.5,1.83,1.4,2.467s2.1,0.876,3.3,0.717c2.2-0.318,6.5-0.955,10.2-1.434c4.1-0.557,5.6,0.638,5.6,0.638l0.2,0.159
				l0.2,0.159c0,0,4.7,3.024,8.9,5.97c4.2,2.945,5.6,3.344,7.4,3.503c0.6,0.079,1.2,0.079,2.899,0c2.301-0.159,4.7-0.478,7.2-0.956
				l19.8-3.979c1.4-0.239,3.801-1.433,4.5-4.14c0.2-0.795,0.101-1.512-0.199-2.069c-0.351-0.548-0.361-0.521-1.062-1.237
				c-0.699-0.716-1.057-0.79-1.838-1.23c-0.5-0.238-1-0.398-1.5-0.478l-0.2-0.079H51.6c-0.1-0.16-0.199-0.398-0.3-0.558
				c-1.2-2.149-3.2-3.343-5.7-3.423S41.2,70.438,41.2,70.438l-2.7-1.83c-0.5-0.398-3.5-2.866-6.2-4.379
				C31.3,63.513,29.8,63.035,27.9,62.637z M9.5,65.104v11.86c-2.2,0.318-4.2,0.637-5.5,0.797V65.104H9.5z M13.5,65.104h7.8
				c2,0,3.9,0.159,5.6,0.558c1.4,0.318,2.5,0.637,3.2,1.114c2.6,1.513,5.7,4.06,5.7,4.06l0.1,0.08l2.7,1.83
				c0.101,0.08,2.9,2.07,6.9,2.149c1,0,1.7,0.876,2.1,1.592c0.101,0.159,0.101,0.319,0.101,0.398S47.6,77.125,47.6,77.283
				c-0.3,0.16-0.899,0.318-1.199,0.479c-1.2,0.318-2.9,0.397-3.5,0.397c-0.801,0.079-3.2,0.079-4.5-0.558
				c-2-0.875-6.3-3.582-6.3-3.582c-0.9-0.557-2.1-0.397-2.8,0.318c-0.7,0.717-0.5,1.672,0.4,2.229c0.2,0.079,4.6,2.786,6.8,3.821
				c2.5,1.113,6,0.955,6.7,0.955c0.5,0,2.8-0.08,4.6-0.637c0.4-0.08,2.2-0.637,2.9-1.354c0.2-0.16,0.3-0.318,0.399-0.479h15.2
				c0.5,0.16,1.5,0.479,1.4,1.195c-0.3,1.353-1.5,1.671-1.601,1.671l-19.8,3.979c-2.2,0.479-4.399,0.717-6.5,0.877
				C38.4,86.836,38,86.756,38,86.756h-0.3c-0.9-0.079-1.7-0.158-5.3-2.706c-3.9-2.706-8.1-5.493-8.9-5.97
				c-0.8-0.637-3.4-2.469-9.2-1.672c-0.3,0-0.5,0.079-0.8,0.079V65.104z"/>
			<path id="Shape-Copy" fill="#0f5cd5" d="M34.204,0.079c1.9,0.159,3.399,0.556,7.601,3.49c4.299,3.014,8.899,5.949,8.899,5.949
				l0.2,0.158l0.199,0.159c0,0,1.4,1.189,5.601,0.634c3.7-0.476,8-1.11,10.2-1.428c1.199-0.159,2.4,0.079,3.3,0.714
				s1.399,1.507,1.399,2.459v12.612c0,1.745-1.799,3.173-4,3.173H50.305c-2.4,0-4.601-0.238-6.601-0.635
				c-1.8-0.396-3.3-0.952-4.399-1.586c-2.801-1.586-5.701-3.966-6.201-4.362l-2.7-1.825c-0.1,0-1.9-1.348-4.4-1.428
				c-2.4-0.079-4.4-1.269-5.7-3.411c-0.1-0.159-0.2-0.396-0.3-0.555h-15.2l-0.2-0.079c-0.5-0.08-1-0.238-1.5-0.476
				c-0.943-0.472-0.934-0.403-1.659-1.087c-0.56-0.545-0.599-0.621-1.141-1.451c-0.3-0.635-0.4-1.269-0.2-2.062
				c0.7-2.697,3.1-3.887,4.5-4.125l19.8-3.966c2.4-0.476,4.8-0.793,7.2-0.952C33.204,0,33.804,0,34.204,0.079z M67.604,12.215
				c-1.299,0.159-3.299,0.476-5.5,0.793v11.819h5.5V12.215z M31.804,3.252c-2.1,0.159-4.3,0.396-6.5,0.873l-19.8,3.966
				c-0.1,0-1.2,0.317-1.6,1.666c-0.2,0.714,0.9,1.11,1.4,1.19h15.2c0.1-0.159,0.2-0.317,0.4-0.476c0.7-0.714,2.7-1.269,2.9-1.349
				c1.8-0.555,4.1-0.634,4.6-0.634c0.7,0,4.2-0.159,6.7,0.952c2.201,1.031,6.6,3.728,6.8,3.808c0.9,0.555,1,1.507,0.4,2.221
				c-0.701,0.714-1.9,0.793-2.801,0.317c0,0-4.4-2.697-6.3-3.569c-1.3-0.555-3.7-0.555-4.4-0.555h-0.1c-0.6,0-2.3,0.079-3.5,0.396
				c-0.3,0.079-0.9,0.317-1.2,0.476l0,0c0,0.159,0,0.238-0.1,0.396c0,0.159,0,0.317,0.1,0.396c0.4,0.714,1.1,1.507,2.1,1.586
				c4,0.079,6.8,2.062,7,2.221l2.8,1.903c0,0,3,2.539,5.699,4.045c0.701,0.396,1.801,0.793,3.201,1.11
				c1.699,0.397,3.6,0.556,5.6,0.556h7.8V13.484c-0.3,0-0.5,0.079-0.8,0.079c-5.801,0.714-8.5-1.031-9.2-1.666
				c-0.8-0.555-5-3.252-8.899-5.949c-3.601-2.539-4.4-2.618-5.301-2.697h-0.3C33.604,3.173,33.204,3.173,31.804,3.252z"/>
			<path id="Shape_1_" fill="#0f5cd5" d="M63.7,62.969c-1.2,1.799-2.5,3.6-4.101,5.1c-0.399,0.4-0.6,0.9-0.6,1.4s0.2,1,0.6,1.399
				c0.801,0.8,2.101,0.8,2.801,0c1.699-1.8,3.3-3.7,4.6-5.8c0.6-0.9,0.3-2.2-0.6-2.801C65.5,61.768,64.3,62.068,63.7,62.969z
				 M68.2,50.768c-0.3,2.201-0.8,4.301-1.601,6.4c-0.1,0.2-0.1,0.5-0.1,0.7c0,0.8,0.5,1.601,1.3,1.899c1,0.4,2.2-0.199,2.601-1.199
				c0.8-2.301,1.399-4.7,1.8-7.2c0.1-1.101-0.601-2.101-1.7-2.2C69.3,48.868,68.3,49.668,68.2,50.768z M67.1,37.168
				c0,0.2,0,0.4,0.101,0.6c0.6,2.1,1,4.3,1.2,6.4c0.1,1.1,1,1.9,2.1,1.801c1.1-0.101,1.9-1,1.8-2.101c-0.2-2.5-0.6-4.9-1.399-7.3
				c-0.301-1.1-1.4-1.7-2.5-1.3C67.6,35.468,67.1,36.268,67.1,37.168z M60.4,24.968c0,0.5,0.199,0.9,0.5,1.3
				c1.399,1.7,2.699,3.5,3.8,5.4c0.5,1,1.8,1.3,2.7,0.8c1-0.5,1.3-1.7,0.8-2.7c-0.455-0.833-0.938-1.638-1.456-2.42
				c-0.848-1.281-3.924-0.947-4.979-2.127c-0.7-0.8,0.136-2.453-0.665-1.753C60.6,23.868,60.4,24.468,60.4,24.968z"/>
			<path id="Shape-Copy-2" fill="#0f5cd5" d="M8.608,27.5c1.2-1.8,2.5-3.6,4.1-5.1c0.4-0.4,0.6-0.9,0.6-1.4s-0.2-1-0.6-1.4
				c-0.8-0.8-2.1-0.8-2.8,0c-1.7,1.8-3.3,3.7-4.6,5.8c-0.6,0.9-0.3,2.2,0.6,2.8C6.809,28.7,8.008,28.4,8.608,27.5z M4.108,39.7
				c0.3-2.2,0.8-4.3,1.6-6.4c0.1-0.2,0.1-0.5,0.1-0.7c0-0.8-0.5-1.6-1.3-1.9c-1-0.4-2.2,0.2-2.6,1.2c-0.8,2.3-1.4,4.7-1.8,7.2
				c-0.1,1.1,0.6,2.1,1.7,2.2C3.008,41.6,4.008,40.8,4.108,39.7z M5.208,53.3c0-0.2,0-0.399-0.1-0.6c-0.6-2.101-1-4.3-1.2-6.4
				c-0.1-1.1-1-1.9-2.1-1.8c-1.1,0.1-1.9,1-1.8,2.1c0.2,2.5,0.6,4.9,1.4,7.301c0.3,1.1,1.4,1.699,2.5,1.3
				C4.708,55,5.208,54.2,5.208,53.3z M11.908,65.5c0-0.5-0.2-0.9-0.5-1.3c-1.4-1.7-2.7-3.5-3.8-5.4c-0.5-1-1.8-1.3-2.7-0.8
				c-1,0.5-1.3,1.7-0.8,2.7c0.375,0.687,0.768,1.353,1.185,2.003c0.918,1.436,3.622,0.776,4.792,2.084
				c0.7,0.8,0.324,2.913,1.124,2.213C11.708,66.6,11.908,66,11.908,65.5z"/>
			<g>
				<path id="Shape_3_" fill="#0f5cd5" d="M47.299,48.116v8.954c0,0.663-0.531,1.201-1.184,1.201H27.884
					c-0.652,0-1.184-0.538-1.184-1.201l0.001-13.567c0-0.663,0.531-1.202,1.183-1.202h18.232c0.651,0,1.183,0.539,1.183,1.202
					c0,0.478,0.38,0.864,0.851,0.864c0.47,0,0.85-0.386,0.85-0.864c0-1.616-1.293-2.93-2.883-2.93h-2.033v-5.372
					C44.084,31.232,40.906,28,37,28s-7.084,3.23-7.084,7.202v5.373h-2.032c-1.59,0-2.883,1.315-2.883,2.929V57.07
					c0,1.616,1.293,2.93,2.883,2.93h18.232c1.59,0,2.883-1.314,2.883-2.93v-8.954c0-0.478-0.379-0.864-0.85-0.864
					C47.679,47.252,47.299,47.639,47.299,48.116z M32,35.551C32,32.49,34.244,30,37,30c2.756,0,5,2.49,5,5.551V41l-10-0.001V35.551z
					 M37.091,55C37.594,55,38,54.63,38,54.172v-2.865c1.164-0.377,2-1.386,2-2.574C40,47.226,38.654,46,37,46
					c-1.655,0-3,1.226-3,2.732c0,1.25,0.925,2.301,2.182,2.627v2.811C36.182,54.63,36.588,55,37.091,55L37.091,55z M35.52,48.5
					c0-0.828,0.672-1.5,1.5-1.5c0.828,0,1.5,0.672,1.5,1.5s-0.672,1.5-1.5,1.5C36.192,50,35.52,49.328,35.52,48.5z"/>
				<g>
					<path fill="#0f5cd5" d="M37.091,55.5c0.777,0,1.409-0.596,1.409-1.328V51.65c1.21-0.531,2-1.664,2-2.918
						c0-1.782-1.57-3.232-3.5-3.232s-3.5,1.45-3.5,3.232c0,1.318,0.879,2.501,2.182,2.992v2.445
						C35.682,54.903,36.314,55.5,37.091,55.5z M34.5,48.732c0-1.231,1.122-2.232,2.5-2.232c0.004,0,0.007,0,0.011,0
						c-1.099,0.005-1.991,0.9-1.991,2c0,1.103,0.897,2,2,2s2-0.897,2-2c0-1.067-0.84-1.941-1.894-1.997
						c1.32,0.059,2.374,1.036,2.374,2.229c0,0.935-0.665,1.778-1.654,2.099L37.5,50.943v3.229c0,0.181-0.184,0.328-0.409,0.328
						s-0.409-0.148-0.409-0.33v-3.197l-0.375-0.098C35.243,50.6,34.5,49.718,34.5,48.732z M37.02,47.5c0.552,0,1,0.448,1,1
						s-0.448,1-1,1c-0.551,0-1-0.448-1-1S36.468,47.5,37.02,47.5z"/>
					<path fill="#0f5cd5" d="M48.148,46.752c-0.744,0-1.35,0.612-1.35,1.364v8.954c0,0.387-0.307,0.701-0.684,0.701H27.884
						c-0.377,0-0.684-0.314-0.684-0.701l0.001-13.567c0-0.387,0.307-0.702,0.683-0.702h18.232c0.376,0,0.683,0.315,0.683,0.702
						c0,0.752,0.605,1.364,1.351,1.364c0.744,0,1.35-0.612,1.35-1.364c0-1.891-1.518-3.43-3.383-3.43h-1.533v-4.872
						c0-4.247-3.402-7.702-7.584-7.702c-4.182,0-7.584,3.455-7.584,7.702v4.873h-1.532c-1.866,0-3.383,1.539-3.383,3.429V57.07
						c0,1.892,1.518,3.43,3.383,3.43h18.232c1.865,0,3.383-1.538,3.383-3.43v-8.954C49.498,47.364,48.893,46.752,48.148,46.752z
						 M48.498,57.07c0,1.34-1.069,2.43-2.383,2.43H27.883c-1.314,0-2.383-1.09-2.383-2.43V43.504c0-1.339,1.069-2.429,2.383-2.429
						h2.532v-5.873c0-3.696,2.954-6.702,6.584-6.702s6.584,3.006,6.584,6.702v5.872h2.533c1.313,0,2.383,1.09,2.383,2.43
						c0,0.201-0.157,0.364-0.35,0.364c-0.193,0-0.351-0.163-0.351-0.364c0-0.938-0.755-1.702-1.683-1.702H27.885
						c-0.928,0-1.683,0.763-1.683,1.702L26.2,57.07c0,0.938,0.755,1.701,1.684,1.701h18.231c0.929,0,1.684-0.763,1.684-1.701v-8.954
						c0-0.201,0.157-0.364,0.35-0.364s0.35,0.163,0.35,0.364V57.07z"/>
					<path fill="#0f5cd5" d="M42.5,35.551c0-3.337-2.468-6.051-5.5-6.051c-3.033,0-5.5,2.714-5.5,6.051v5.947l11,0.001V35.551z
						 M41.5,40.5l-9-0.001v-4.947c0-2.785,2.019-5.051,4.5-5.051s4.5,2.266,4.5,5.051V40.5z"/>
				</g>
			</g>
		</g>
	</g>
</g>
</svg>
